880233 900150
227743 24477
375695 414581
381532 183453
679099 350913
849006 744676
872807 953697
240988 300310
243068 664416
223685 938015
873249 682272
342238 760569
145853 577503
627100 542988
582203 384876
733674 556569
766795 917235
543683 834426
313186 77988
941551 784937
240166 389040
935294 271051
769856 931904
707136 152154
309786 860276
784369 608438
838491 826873
175268 149435
823373 315200
517335 273075
449887 555726
384955 473205
57499 904012
948504 803856
53881 135648
493414 559787
667340 79158
842081 983462
926484 157975
447959 541163
440281 491240
234368 649947
457160 282194
733226 943264
953201 750079
321890 315567
7725 261004
918195 880166
913766 455610
135437 79343
607513 928971
418940 396825
727814 353702
186562 229728
147987 805672
704280 585601
699390 33503
865770 449908
99340 883041
391058 522950
229090 855245
432520 39376
111647 375164
81526 518237
678361 396102
218457 599636
670321 9532
739509 697601
556155 19529
711430 272530
830751 93245
137166 373654
738752 820193
799467 864164
95929 72584
257784 777044
656642 541664
622406 211698
604079 262452
63376 331566
455671 941449
489891 444367
427464 421117
504938 53268
583859 152490
208114 441517
514989 828769
777128 709308
608003 161477
500909 973428
108317 377799
99586 140227
272273 895267
787598 102318
361699 869618
14120 297707
667751 7550
725463 417674
66024 631217
710580 506572
431895 777053
669593 451703
976072 790641
205191 861868
709063 606701
947654 918363
754336 987610
62612 661052
496547 540556
658614 620244
146034 807374
895079 595018
570986 214868
592978 807368
509589 358784
415600 515870
143291 999926
949055 981758
225356 731982
27010 390100
142286 267455
264081 348190
213040 240488
159082 163762
694753 666458
952920 251932
574368 598884
403534 133687
374019 34020
404974 694462
5765 258246
234482 313636
182209 901371
342292 71624
369259 263788
3229 8886
676299 937415
586043 171038
277276 25738
423120 584970
790713 346943
438734 138583
787040 604654
553576 245507
695199 194844
53192 728269
718663 99838
904066 727498
873801 710550
918878 37468
711175 594259
912465 6040
50097 477328
642893 804068
269257 833322
625936 472006
179310 865332
410098 212760
676231 84474
188123 118495
846352 942810
104813 150859
161795 59628
530565 787126
738597 12956
673738 174780
737062 831374
445334 5586
644797 626062
780008 750748
901934 228091
536115 321413
878258 16567
368772 284380
202289 961238
684731 868821
676698 908070
400611 673852
811440 803924
861410 717630
90594 426450
755721 423441
175827 625926
862047 507509
94180 501832
274942 366154
631790 311073
106376 442063
952427 398804
816980 764456
810151 473512
890508 963574
17641 512648
381068 94075
259718 79821
192432 985558
420460 686770
252158 327640
73121 218136
785296 140956
116698 447829
642700 997322
983 17243
50162 180903
157469 606389
491634 618604
809989 481775
435530 776484
242053 611288
655613 829919
334026 86948
14410 223849
177012 192586
816014 981700
801122 876176
629775 677295
582158 755323
749729 114633
945978 194783
257227 903194
554382 460644
976756 37296
421381 847988
141385 996739
921286 524612
480980 232407
319145 473487
215896 663996
885999 267193
743769 772297
810259 665198
982017 5087
951522 960275
518188 674141
380824 958363
222282 453844
889482 18501
29041 782221
697773 539345
131312 739610
470742 650616
53063 203518
363979 794913
135462 801228
502450 30565
316806 818826
933330 739745
66954 531053
536877 825675
830873 876053
832346 804045
590149 550672
847115 51461
78449 307413
952336 893898
918288 892760
955043 141368
191122 108826
35993 479642
636861 99525
540347 840966
190983 711551
795703 687594
158619 107070
264713 950923
79276 641189
999875 447902
196615 566066
597668 538676
478997 154333
496603 497036
571679 547057
358975 316869
420317 534007
629443 179804
9503 433518
599792 688896
165014 188932
71429 672553
249350 364221
883127 449713
