880233 900150 445
227743 24477 386
375695 414581 449
381532 183453 443
679099 350913 509
849006 744676 525
872807 953697 507
240988 300310 407
243068 664416 509
223685 938015 525
873249 682272 525
342238 760569 509
145853 577503 470
627100 542988 509
582203 384876 470
733674 556569 509
766795 917235 525
543683 834426 509
313186 77988 443
941551 784937 525
240166 389040 441
935294 271051 525
769856 931904 525
707136 152154 509
309786 860276 525
784369 608438 509
838491 826873 525
175268 149435 383
823373 315200 509
517335 273075 470
449887 555726 470
384955 473205 449
57499 904012 525
948504 803856 525
53881 135648 354
493414 559787 470
667340 79158 509
842081 983462 507
926484 157975 525
447959 541163 470
440281 491240 444
234368 649947 509
457160 282194 449
733226 943264 525
953201 750079 525
321890 315567 371
7725 261004 443
918195 880166 476
913766 455610 525
135437 79343 354
607513 928971 525
418940 396825 449
727814 353702 509
186562 229728 386
147987 805672 509
704280 585601 509
699390 33503 509
865770 449908 525
99340 883041 525
391058 522950 470
229090 855245 525
432520 39376 449
111647 375164 443
81526 518237 470
678361 396102 509
218457 599636 470
670321 9532 509
739509 697601 504
556155 19529 470
711430 272530 509
830751 93245 509
137166 373654 443
738752 820193 468
799467 864164 525
95929 72584 351
257784 777044 509
656642 541664 509
622406 211698 470
604079 262452 470
63376 331566 443
455671 941449 525
489891 444367 444
427464 421117 418
504938 53268 449
583859 152490 470
208114 441517 449
514989 828769 509
777128 709308 468
608003 161477 470
500909 973428 525
108317 377799 443
99586 140227 354
272273 895267 525
787598 102318 509
361699 869618 525
14120 297707 443
667751 7550 509
725463 417674 509
66024 631217 509
710580 506572 509
431895 777053 509
669593 451703 509
976072 790641 525
205191 861868 525
709063 606701 509
947654 918363 507
754336 987610 525
62612 661052 509
496547 540556 470
658614 620244 509
146034 807374 509
895079 595018 525
570986 214868 470
592978 807368 509
509589 358784 449
415600 515870 470
143291 999926 525
949055 981758 458
225356 731982 509
27010 390100 443
142286 267455 443
264081 348190 441
213040 240488 443
159082 163762 370
694753 666458 442
952920 251932 525
574368 598884 434
403534 133687 443
374019 34020 443
404974 694462 509
5765 258246 443
234482 313636 407
182209 901371 525
342292 71624 443
369259 263788 441
3229 8886 262
676299 937415 525
586043 171038 470
277276 25738 443
423120 584970 470
790713 346943 509
438734 138583 449
787040 604654 509
553576 245507 470
695199 194844 509
53192 728269 509
718663 99838 509
904066 727498 525
873801 710550 525
918878 37468 525
711175 594259 509
912465 6040 525
50097 477328 449
642893 804068 504
269257 833322 509
625936 472006 470
179310 865332 525
410098 212760 449
676231 84474 509
188123 118495 383
846352 942810 507
104813 150859 375
161795 59628 383
530565 787126 509
738597 12956 509
673738 174780 509
737062 831374 468
445334 5586 449
644797 626062 509
780008 750748 468
901934 228091 525
536115 321413 470
878258 16567 525
368772 284380 441
202289 961238 525
684731 868821 525
676698 908070 525
400611 673852 509
811440 803924 406
861410 717630 525
90594 426450 449
755721 423441 509
175827 625926 470
862047 507509 525
94180 501832 449
274942 366154 441
631790 311073 509
106376 442063 449
952427 398804 525
816980 764456 468
810151 473512 509
890508 963574 507
17641 512648 470
381068 94075 443
259718 79821 443
192432 985558 525
420460 686770 509
252158 327640 407
73121 218136 386
785296 140956 509
116698 447829 449
642700 997322 525
983 17243 276
50162 180903 383
157469 606389 470
491634 618604 470
809989 481775 509
435530 776484 509
242053 611288 470
655613 829919 504
334026 86948 443
14410 223849 386
177012 192586 365
816014 981700 525
801122 876176 525
629775 677295 442
582158 755323 509
749729 114633 509
945978 194783 525
257227 903194 525
554382 460644 470
976756 37296 525
421381 847988 525
141385 996739 525
921286 524612 525
480980 232407 449
319145 473487 449
215896 663996 509
885999 267193 525
743769 772297 468
810259 665198 504
982017 5087 525
951522 960275 414
518188 674141 509
380824 958363 525
222282 453844 449
889482 18501 525
29041 782221 509
697773 539345 509
131312 739610 509
470742 650616 509
53063 203518 383
363979 794913 509
135462 801228 509
502450 30565 449
316806 818826 509
933330 739745 525
66954 531053 470
536877 825675 509
830873 876053 525
832346 804045 450
590149 550672 434
847115 51461 525
78449 307413 443
952336 893898 507
918288 892760 476
955043 141368 525
191122 108826 383
35993 479642 449
636861 99525 509
540347 840966 525
190983 711551 509
795703 687594 504
158619 107070 383
264713 950923 525
79276 641189 509
999875 447902 525
196615 566066 470
597668 538676 452
478997 154333 449
496603 497036 258
571679 547057 421
358975 316869 441
420317 534007 470
629443 179804 509
9503 433518 449
599792 688896 509
165014 188932 365
71429 672553 509
249350 364221 441
883127 449713 525
