49623 85482
576169 687142
708010 710545
601108 942548
963183 20605
513874 325396
880926 965008
347124 798850
243130 123520
58914 512449
470125 777915
314799 246521
402797 358654
473400 552110
39670 924333
386405 457530
222598 373513
751011 891822
109504 931663
552923 949012
971219 238756
739297 259682
774219 232099
82554 597110
689718 455348
840793 122933
643469 65118
650580 679615
40869 458316
85084 134966
325285 843183
578316 884307
953943 20802
485626 352525
903974 920164
376763 540000
183408 926132
868423 170105
267775 289892
988887 45357
875556 401439
607654 153758
793002 799765
577301 628278
289024 389198
681975 601241
241170 471885
255400 82424
214557 656992
127272 303481
176137 199297
902108 234
830773 313884
525648 830433
60915 617304
533454 675351
953649 519643
30644 97329
51616 738706
52720 468213
817386 833561
745409 658712
514687 327452
295819 475308
150082 165698
482783 890837
220920 605832
958755 608429
296266 222184
168524 285075
519669 883369
241933 267350
401937 150656
508009 189718
114953 723486
679645 205909
982719 888402
931812 833306
220745 82965
452140 663891
551965 35602
389626 670514
412677 554057
858512 597974
545097 320653
92953 581519
115671 160482
723619 999117
591888 276493
234245 46441
496005 136567
302053 970330
836111 507031
473249 269727
788716 953173
838759 693663
420815 43454
429940 214866
139923 232974
687466 961193
37509 408199
490836 712278
671744 979645
673545 209060
625307 923701
859184 415941
529788 786566
553956 291932
449480 191840
273749 935150
197847 642738
430484 563271
51619 624204
981643 522376
513671 926027
460518 989271
222047 112896
745469 797911
992984 653191
349598 408703
364162 676548
860929 555678
181437 694643
569413 47453
787831 82746
684865 350181
177851 949052
64109 791579
427542 29301
368526 878912
660734 638106
988243 522163
704231 630751
758200 59470
508414 666434
383970 727574
539556 865333
393268 307208
370605 706108
838397 851123
254775 462703
598269 13512
734961 344956
34154 708521
264577 912102
233174 559114
568660 787219
695342 783820
555593 987494
386949 539664
813933 593481
944972 158506
477135 537451
678819 917100
716523 18853
50063 317951
32114 824898
506274 688395
490876 902014
759704 954219
515902 674451
252390 10594
309656 147753
796815 828039
109099 949309
78825 223023
358130 266038
798654 553535
226773 373318
305003 350251
328182 564373
734282 514001
46257 895473
738232 306524
616289 403709
400927 41516
380232 127630
802469 816546
614501 382770
769498 189178
598215 783912
734696 908966
923084 19655
315502 225859
937738 938668
198556 288963
454523 410787
252926 31745
921360 858482
222916 12425
274180 726988
808026 341297
887387 441788
373039 271060
178375 671369
598749 530665
689729 665834
977764 258945
943124 147264
147992 499690
858081 615213
89296 149410
575278 411800
