79 492 144
988 558 179
129 637 144
121 170 122
430 586 142
633 785 171
486 896 179
979 704 179
291 905 179
911 634 179
830 754 153
463 374 134
612 777 171
820 30 171
332 350 126
934 824 179
328 823 171
803 293 171
115 365 144
788 713 153
500 406 142
124 682 145
415 634 142
983 189 179
761 236 171
276 80 128
350 580 142
388 702 145
914 56 179
530 729 171
341 409 126
743 404 171
456 501 142
303 17 128
780 773 153
907 110 179
891 113 179
450 539 142
556 418 142
474 370 134
371 553 142
789 804 122
923 380 179
723 16 171
557 143 144
760 298 171
941 528 179
234 854 171
243 704 171
955 888 174
881 243 179
950 722 179
613 157 144
69 718 171
762 494 171
260 179 128
20 386 144
99 892 179
391 280 144
509 477 142
1000 595 179
926 309 179
887 815 179
784 966 179
745 595 171
133 300 128
421 109 144
479 99 144
646 156 144
704 602 171
820 570 171
989 689 179
514 284 144
112 674 145
613 765 171
222 801 171
916 813 179
915 813 179
714 784 153
277 375 144
663 70 145
802 197 171
211 737 171
854 420 171
526 135 144
206 329 144
886 296 179
864 482 171
753 736 140
721 760 140
312 964 179
812 647 171
413 128 144
732 264 171
2 47 112
818 606 171
342 61 144
633 50 144
403 309 144
353 380 126
519 52 144
919 415 179
228 566 144
706 737 140
956 181 179
52 665 145
90 862 171
442 461 129
74 430 144
557 179 144
674 495 145
365 95 144
338 721 171
973 136 179
256 174 128
282 762 171
419 804 171
302 964 179
617 899 179
599 180 144
481 574 142
438 286 144
702 843 171
787 770 153
651 330 145
561 413 142
612 29 144
716 899 179
924 150 179
173 776 171
955 133 179
880 87 179
217 428 144
236 11 128
772 711 153
268 56 128
815 173 171
655 544 145
322 966 179
959 146 179
635 644 132
768 527 171
429 36 144
600 181 144
957 106 179
627 102 144
714 105 171
311 51 128
405 174 144
442 718 171
781 244 171
547 502 137
991 809 179
66 788 171
313 287 131
345 157 144
196 518 144
618 472 142
73 316 131
184 911 179
782 628 171
636 570 132
245 981 179
6 653 145
790 669 171
428 582 142
898 66 179
210 101 125
152 535 144
89 631 144
579 949 179
890 387 179
703 799 171
192 745 171
945 233 179
314 973 179
365 297 144
157 347 144
904 579 179
148 930 179
470 909 179
221 186 120
991 890 174
332 896 179
468 499 142
741 497 171
570 977 179
683 384 145
938 227 179
353 986 179
701 218 145
168 923 179
998 113 179
479 984 179
474 977 179
469 546 142
961 314 179
213 543 144
707 743 140
250 80 128
454 16 144
963 522 179
208 283 128
387 256 144
279 422 144
189 93 125
774 154 171
122 354 144
520 835 171
555 303 144
18 415 144
477 364 134
320 631 144
506 370 142
878 996 174
558 251 144
586 61 144
689 695 127
181 151 125
606 886 179
352 396 126
777 231 171
516 440 142
113 750 171
817 43 171
478 359 134
684 391 145
781 176 171
851 826 135
729 987 179
823 694 171
560 40 144
828 312 171
718 102 171
200 98 125
871 689 179
658 239 145
431 634 142
941 993 143
2 413 144
379 579 142
953 602 179
842 426 171
785 640 171
229 633 144
443 1000 179
464 576 142
150 288 128
551 716 171
614 804 171
