459645 917958 525
818519 310001 509
229588 179091 386
774462 646450 504
381649 493110 449
406319 351663 436
38285 563308 470
763027 26727 509
679077 728837 504
514719 501295 470
657032 50570 509
66644 947972 525
374132 517489 470
962701 100388 525
9867 700783 509
960758 376458 525
417725 84828 449
942538 380395 525
589557 27909 470
497882 327966 449
227711 251001 443
519767 613438 452
505900 495866 426
602508 149274 470
876530 538097 525
909153 737926 525
468805 882110 525
877199 982503 507
618796 44346 470
942433 128073 525
672386 39771 509
316172 799067 509
450399 927300 525
420633 420471 312
679881 844406 525
601798 136396 470
550043 231758 470
707926 851824 525
972974 365551 525
708335 820153 468
878968 840321 432
734454 868724 525
902091 609784 525
978528 951903 458
807174 434023 509
312114 850696 525
589088 691836 509
213236 473018 449
808317 754794 468
140741 464352 449
436827 367717 449
343928 503117 449
132451 24721 354
23283 656881 509
844271 397745 525
479172 965076 525
544221 128815 470
294833 245881 407
743430 191414 509
663490 229796 509
562910 188743 470
149396 830038 509
484785 173802 449
900423 61361 525
985069 437856 525
842965 776016 525
357146 640653 509
360964 816782 509
941534 217447 525
258226 580636 470
463622 450154 444
577590 735672 509
628644 710370 504
163115 877161 525
6695 113889 354
728336 924489 525
58340 385573 443
965116 89849 525
191341 396306 443
445834 732216 509
471726 664904 509
357932 711707 509
436206 969591 525
949543 509709 525
300088 65171 443
300213 682242 509
467596 482779 413
519021 13454 470
790231 336523 509
356755 98635 443
826641 696342 504
172850 933619 525
225729 861352 525
128062 678354 509
22564 195238 383
9477 501148 449
355053 184028 443
9253 877686 525
660970 253017 509
735688 205460 509
397872 176632 443
590390 925866 525
930563 870434 476
781841 918909 525
848014 838943 419
409819 885482 525
709823 655630 504
398912 301076 441
708943 427837 509
550782 928895 525
675377 398842 509
458332 712710 509
467222 812244 509
693788 738678 504
248748 643329 509
355642 143537 443
846129 684851 525
613483 92440 470
690996 110952 509
294227 973757 525
728049 669060 504
703302 400492 509
753931 290081 509
948635 45314 525
697526 667351 442
889357 517534 525
475100 222705 449
703348 458483 509
91844 184042 383
876937 164549 525
172221 579509 470
821764 195476 509
2696 537584 470
979699 787496 525
68399 118264 354
660854 813553 504
615623 521179 452
988211 335383 525
717438 629541 504
936230 208717 525
447890 849123 525
864424 440052 525
201558 910820 525
451068 234971 449
939733 959332 414
929750 397928 525
255403 505918 449
286318 498775 449
548573 485718 470
377599 445654 449
791070 82838 509
774014 683343 504
766318 753628 380
134763 793120 509
891139 128230 525
503977 870537 525
25385 461859 449
400198 137626 443
245343 227887 443
90240 673536 509
499148 976212 525
404879 452130 449
151328 419525 449
535551 586493 452
159758 517924 470
952082 216624 525
565319 886080 525
800838 562933 509
378639 157220 443
757065 392096 509
923850 720318 525
328390 796048 509
533885 110578 470
947207 163687 525
61998 919097 525
70068 720193 509
887157 66753 525
736297 543887 509
298857 505791 449
651924 139707 509
99416 100134 328
562860 782787 509
714446 666529 504
431242 484538 444
19365 418204 449
473956 476709 382
118634 836073 509
706291 316349 509
942347 402275 525
306560 872063 525
652289 883054 525
52131 125231 354
956645 792120 525
414527 685580 509
650538 707852 504
399079 503436 449
844578 497404 525
979059 515639 525
16745 506521 449
464575 222434 449
535931 242004 470
271156 956945 525
852797 36345 525
656459 563336 509
725336 151199 509
691833 744118 504
520305 571548 452
944569 633052 525
687310 1982 509
650713 627627 416
866974 511139 525
467349 398179 449
204131 336151 443
146706 666833 509
169304 587139 470
451691 828000 509
521088 159749 470
379999 85590 443
85453 300607 443
985946 400749 525
508933 329125 449
339149 464360 449
772705 905172 525
924425 653944 525
59485 842149 525
661946 267731 509
975567 564215 525
691723 688526 336
948904 80114 525
236557 958058 525
780719 705590 468
